starting vacuum...end.
transaction type: ../test.sql
scaling factor: 1
query mode: prepared
number of clients: 8
number of threads: 8
duration: 300 s
number of transactions actually processed: 6961630
latency average: 0.345 ms
tps = 23205.397133 (including connections establishing)
tps = 23205.897422 (excluding connections establishing)
