starting vacuum...end.
transaction type: <builtin: TPC-B (sort of)>
scaling factor: 300
query mode: prepared
number of clients: 16
number of threads: 8
duration: 300 s
number of transactions actually processed: 6879759
latency average: 0.698 ms
tps = 22932.452030 (including connections establishing)
tps = 22932.889506 (excluding connections establishing)
