starting vacuum...end.
transaction type: <builtin: TPC-B (sort of)>
scaling factor: 300
query mode: prepared
number of clients: 128
number of threads: 8
duration: 300 s
number of transactions actually processed: 14347194
latency average: 2.676 ms
tps = 47816.474885 (including connections establishing)
tps = 47817.126011 (excluding connections establishing)
