starting vacuum...end.
transaction type: ../test.sql
scaling factor: 1
query mode: prepared
number of clients: 16
number of threads: 8
duration: 300 s
number of transactions actually processed: 7680108
latency average: 0.625 ms
tps = 25600.243007 (including connections establishing)
tps = 25600.749393 (excluding connections establishing)
