starting vacuum...end.
transaction type: <builtin: TPC-B (sort of)>
scaling factor: 300
query mode: prepared
number of clients: 4
number of threads: 4
duration: 300 s
number of transactions actually processed: 4292251
latency average: 0.280 ms
tps = 14307.489550 (including connections establishing)
tps = 14307.636466 (excluding connections establishing)
