starting vacuum...end.
transaction type: <builtin: TPC-B (sort of)>
scaling factor: 300
query mode: prepared
number of clients: 128
number of threads: 8
duration: 300 s
number of transactions actually processed: 14015237
latency average: 2.740 ms
tps = 46716.165276 (including connections establishing)
tps = 46716.761425 (excluding connections establishing)
