starting vacuum...end.
transaction type: <builtin: TPC-B (sort of)>
scaling factor: 300
query mode: prepared
number of clients: 64
number of threads: 8
duration: 300 s
number of transactions actually processed: 12737416
latency average: 1.507 ms
tps = 42457.810616 (including connections establishing)
tps = 42458.440826 (excluding connections establishing)
