starting vacuum...end.
transaction type: ../test.sql
scaling factor: 1
query mode: prepared
number of clients: 1
number of threads: 1
duration: 300 s
number of transactions actually processed: 1430658
latency average: 0.210 ms
tps = 4768.858903 (including connections establishing)
tps = 4768.907164 (excluding connections establishing)
