starting vacuum...end.
transaction type: <builtin: TPC-B (sort of)>
scaling factor: 300
query mode: prepared
number of clients: 128
number of threads: 8
duration: 300 s
number of transactions actually processed: 10067243
latency average: 3.814 ms
tps = 33553.603686 (including connections establishing)
tps = 33554.466101 (excluding connections establishing)
