starting vacuum...end.
transaction type: <builtin: TPC-B (sort of)>
scaling factor: 300
query mode: prepared
number of clients: 16
number of threads: 8
duration: 300 s
number of transactions actually processed: 7925984
latency average: 0.606 ms
tps = 26419.810605 (including connections establishing)
tps = 26420.241902 (excluding connections establishing)
