starting vacuum...end.
transaction type: <builtin: TPC-B (sort of)>
scaling factor: 300
query mode: prepared
number of clients: 8
number of threads: 8
duration: 300 s
number of transactions actually processed: 5650284
latency average: 0.425 ms
tps = 18834.211883 (including connections establishing)
tps = 18834.644537 (excluding connections establishing)
