starting vacuum...end.
transaction type: <builtin: TPC-B (sort of)>
scaling factor: 300
query mode: prepared
number of clients: 192
number of threads: 8
duration: 300 s
number of transactions actually processed: 10637031
latency average: 5.415 ms
tps = 35456.062061 (including connections establishing)
tps = 35456.900830 (excluding connections establishing)
