starting vacuum...end.
transaction type: <builtin: TPC-B (sort of)>
scaling factor: 300
query mode: prepared
number of clients: 32
number of threads: 8
duration: 300 s
number of transactions actually processed: 10481819
latency average: 0.916 ms
tps = 34939.233733 (including connections establishing)
tps = 34939.802201 (excluding connections establishing)
