starting vacuum...end.
transaction type: ../test.sql
scaling factor: 1
query mode: prepared
number of clients: 16
number of threads: 8
duration: 300 s
number of transactions actually processed: 7870932
latency average: 0.610 ms
tps = 26236.378345 (including connections establishing)
tps = 26236.880468 (excluding connections establishing)
