NOTICE:  table "pgbench_history" does not exist, skipping
NOTICE:  table "pgbench_tellers" does not exist, skipping
NOTICE:  table "pgbench_accounts" does not exist, skipping
NOTICE:  table "pgbench_branches" does not exist, skipping
creating tables...
100000 of 30000000 tuples (0%) done (elapsed 0.12 s, remaining 34.42 s)
200000 of 30000000 tuples (0%) done (elapsed 0.23 s, remaining 33.66 s)
300000 of 30000000 tuples (1%) done (elapsed 0.37 s, remaining 37.00 s)
400000 of 30000000 tuples (1%) done (elapsed 0.50 s, remaining 36.91 s)
500000 of 30000000 tuples (1%) done (elapsed 0.62 s, remaining 36.53 s)
600000 of 30000000 tuples (2%) done (elapsed 0.74 s, remaining 36.24 s)
700000 of 30000000 tuples (2%) done (elapsed 0.86 s, remaining 35.80 s)
800000 of 30000000 tuples (2%) done (elapsed 0.96 s, remaining 34.96 s)
900000 of 30000000 tuples (3%) done (elapsed 1.06 s, remaining 34.29 s)
1000000 of 30000000 tuples (3%) done (elapsed 1.16 s, remaining 33.74 s)
1100000 of 30000000 tuples (3%) done (elapsed 1.26 s, remaining 33.10 s)
1200000 of 30000000 tuples (4%) done (elapsed 1.37 s, remaining 32.76 s)
1300000 of 30000000 tuples (4%) done (elapsed 1.47 s, remaining 32.41 s)
1400000 of 30000000 tuples (4%) done (elapsed 1.62 s, remaining 33.03 s)
1500000 of 30000000 tuples (5%) done (elapsed 1.73 s, remaining 32.94 s)
1600000 of 30000000 tuples (5%) done (elapsed 1.86 s, remaining 32.94 s)
1700000 of 30000000 tuples (5%) done (elapsed 1.99 s, remaining 33.09 s)
1800000 of 30000000 tuples (6%) done (elapsed 2.10 s, remaining 32.85 s)
1900000 of 30000000 tuples (6%) done (elapsed 2.20 s, remaining 32.52 s)
2000000 of 30000000 tuples (6%) done (elapsed 2.30 s, remaining 32.22 s)
2100000 of 30000000 tuples (7%) done (elapsed 2.41 s, remaining 31.98 s)
2200000 of 30000000 tuples (7%) done (elapsed 2.51 s, remaining 31.72 s)
2300000 of 30000000 tuples (7%) done (elapsed 2.62 s, remaining 31.50 s)
2400000 of 30000000 tuples (8%) done (elapsed 2.72 s, remaining 31.31 s)
2500000 of 30000000 tuples (8%) done (elapsed 2.83 s, remaining 31.09 s)
2600000 of 30000000 tuples (8%) done (elapsed 2.93 s, remaining 30.88 s)
2700000 of 30000000 tuples (9%) done (elapsed 3.04 s, remaining 30.71 s)
2800000 of 30000000 tuples (9%) done (elapsed 3.14 s, remaining 30.51 s)
2900000 of 30000000 tuples (9%) done (elapsed 3.25 s, remaining 30.38 s)
3000000 of 30000000 tuples (10%) done (elapsed 3.36 s, remaining 30.20 s)
3100000 of 30000000 tuples (10%) done (elapsed 3.46 s, remaining 29.99 s)
3200000 of 30000000 tuples (10%) done (elapsed 3.56 s, remaining 29.84 s)
3300000 of 30000000 tuples (11%) done (elapsed 3.67 s, remaining 29.71 s)
3400000 of 30000000 tuples (11%) done (elapsed 3.77 s, remaining 29.50 s)
3500000 of 30000000 tuples (11%) done (elapsed 3.88 s, remaining 29.36 s)
3600000 of 30000000 tuples (12%) done (elapsed 3.99 s, remaining 29.25 s)
3700000 of 30000000 tuples (12%) done (elapsed 4.09 s, remaining 29.08 s)
3800000 of 30000000 tuples (12%) done (elapsed 4.20 s, remaining 28.93 s)
3900000 of 30000000 tuples (13%) done (elapsed 4.30 s, remaining 28.81 s)
4000000 of 30000000 tuples (13%) done (elapsed 4.41 s, remaining 28.65 s)
4100000 of 30000000 tuples (13%) done (elapsed 4.51 s, remaining 28.51 s)
4200000 of 30000000 tuples (14%) done (elapsed 4.62 s, remaining 28.36 s)
4300000 of 30000000 tuples (14%) done (elapsed 4.73 s, remaining 28.24 s)
4400000 of 30000000 tuples (14%) done (elapsed 4.83 s, remaining 28.08 s)
4500000 of 30000000 tuples (15%) done (elapsed 4.93 s, remaining 27.95 s)
4600000 of 30000000 tuples (15%) done (elapsed 5.06 s, remaining 27.96 s)
4700000 of 30000000 tuples (15%) done (elapsed 5.20 s, remaining 28.00 s)
4800000 of 30000000 tuples (16%) done (elapsed 5.32 s, remaining 27.92 s)
4900000 of 30000000 tuples (16%) done (elapsed 5.44 s, remaining 27.88 s)
5000000 of 30000000 tuples (16%) done (elapsed 5.55 s, remaining 27.77 s)
5100000 of 30000000 tuples (17%) done (elapsed 5.66 s, remaining 27.62 s)
5200000 of 30000000 tuples (17%) done (elapsed 5.76 s, remaining 27.47 s)
5300000 of 30000000 tuples (17%) done (elapsed 5.86 s, remaining 27.31 s)
5400000 of 30000000 tuples (18%) done (elapsed 5.97 s, remaining 27.18 s)
5500000 of 30000000 tuples (18%) done (elapsed 6.07 s, remaining 27.04 s)
5600000 of 30000000 tuples (18%) done (elapsed 6.21 s, remaining 27.06 s)
5700000 of 30000000 tuples (19%) done (elapsed 6.34 s, remaining 27.01 s)
5800000 of 30000000 tuples (19%) done (elapsed 6.46 s, remaining 26.94 s)
5900000 of 30000000 tuples (19%) done (elapsed 6.58 s, remaining 26.88 s)
6000000 of 30000000 tuples (20%) done (elapsed 6.70 s, remaining 26.79 s)
6100000 of 30000000 tuples (20%) done (elapsed 6.81 s, remaining 26.67 s)
6200000 of 30000000 tuples (20%) done (elapsed 6.91 s, remaining 26.53 s)
6300000 of 30000000 tuples (21%) done (elapsed 7.02 s, remaining 26.40 s)
6400000 of 30000000 tuples (21%) done (elapsed 7.12 s, remaining 26.27 s)
6500000 of 30000000 tuples (21%) done (elapsed 7.23 s, remaining 26.14 s)
6600000 of 30000000 tuples (22%) done (elapsed 7.34 s, remaining 26.01 s)
6700000 of 30000000 tuples (22%) done (elapsed 7.44 s, remaining 25.86 s)
6800000 of 30000000 tuples (22%) done (elapsed 7.55 s, remaining 25.75 s)
6900000 of 30000000 tuples (23%) done (elapsed 7.64 s, remaining 25.59 s)
7000000 of 30000000 tuples (23%) done (elapsed 7.76 s, remaining 25.48 s)
7100000 of 30000000 tuples (23%) done (elapsed 7.86 s, remaining 25.34 s)
7200000 of 30000000 tuples (24%) done (elapsed 7.96 s, remaining 25.22 s)
7300000 of 30000000 tuples (24%) done (elapsed 8.07 s, remaining 25.09 s)
7400000 of 30000000 tuples (24%) done (elapsed 8.17 s, remaining 24.95 s)
7500000 of 30000000 tuples (25%) done (elapsed 8.28 s, remaining 24.83 s)
7600000 of 30000000 tuples (25%) done (elapsed 8.38 s, remaining 24.70 s)
7700000 of 30000000 tuples (25%) done (elapsed 8.49 s, remaining 24.58 s)
7800000 of 30000000 tuples (26%) done (elapsed 8.59 s, remaining 24.46 s)
7900000 of 30000000 tuples (26%) done (elapsed 8.69 s, remaining 24.32 s)
8000000 of 30000000 tuples (26%) done (elapsed 8.80 s, remaining 24.20 s)
8100000 of 30000000 tuples (27%) done (elapsed 8.91 s, remaining 24.08 s)
8200000 of 30000000 tuples (27%) done (elapsed 9.01 s, remaining 23.97 s)
8300000 of 30000000 tuples (27%) done (elapsed 9.12 s, remaining 23.85 s)
8400000 of 30000000 tuples (28%) done (elapsed 9.23 s, remaining 23.73 s)
8500000 of 30000000 tuples (28%) done (elapsed 9.33 s, remaining 23.60 s)
8600000 of 30000000 tuples (28%) done (elapsed 9.44 s, remaining 23.48 s)
8700000 of 30000000 tuples (29%) done (elapsed 9.54 s, remaining 23.35 s)
8800000 of 30000000 tuples (29%) done (elapsed 9.64 s, remaining 23.23 s)
8900000 of 30000000 tuples (29%) done (elapsed 9.74 s, remaining 23.09 s)
9000000 of 30000000 tuples (30%) done (elapsed 9.85 s, remaining 22.99 s)
9100000 of 30000000 tuples (30%) done (elapsed 9.95 s, remaining 22.85 s)
9200000 of 30000000 tuples (30%) done (elapsed 10.05 s, remaining 22.73 s)
9300000 of 30000000 tuples (31%) done (elapsed 10.16 s, remaining 22.61 s)
9400000 of 30000000 tuples (31%) done (elapsed 10.27 s, remaining 22.51 s)
9500000 of 30000000 tuples (31%) done (elapsed 10.37 s, remaining 22.38 s)
9600000 of 30000000 tuples (32%) done (elapsed 10.48 s, remaining 22.27 s)
9700000 of 30000000 tuples (32%) done (elapsed 10.58 s, remaining 22.15 s)
9800000 of 30000000 tuples (32%) done (elapsed 10.69 s, remaining 22.03 s)
9900000 of 30000000 tuples (33%) done (elapsed 10.80 s, remaining 21.92 s)
10000000 of 30000000 tuples (33%) done (elapsed 10.90 s, remaining 21.80 s)
10100000 of 30000000 tuples (33%) done (elapsed 11.00 s, remaining 21.68 s)
10200000 of 30000000 tuples (34%) done (elapsed 11.11 s, remaining 21.57 s)
10300000 of 30000000 tuples (34%) done (elapsed 11.22 s, remaining 21.45 s)
10400000 of 30000000 tuples (34%) done (elapsed 11.32 s, remaining 21.33 s)
10500000 of 30000000 tuples (35%) done (elapsed 11.42 s, remaining 21.22 s)
10600000 of 30000000 tuples (35%) done (elapsed 11.53 s, remaining 21.10 s)
10700000 of 30000000 tuples (35%) done (elapsed 11.64 s, remaining 20.99 s)
10800000 of 30000000 tuples (36%) done (elapsed 11.75 s, remaining 20.88 s)
10900000 of 30000000 tuples (36%) done (elapsed 11.85 s, remaining 20.76 s)
11000000 of 30000000 tuples (36%) done (elapsed 11.96 s, remaining 20.66 s)
11100000 of 30000000 tuples (37%) done (elapsed 12.07 s, remaining 20.56 s)
11200000 of 30000000 tuples (37%) done (elapsed 12.18 s, remaining 20.44 s)
11300000 of 30000000 tuples (37%) done (elapsed 12.29 s, remaining 20.33 s)
11400000 of 30000000 tuples (38%) done (elapsed 12.40 s, remaining 20.22 s)
11500000 of 30000000 tuples (38%) done (elapsed 12.50 s, remaining 20.11 s)
11600000 of 30000000 tuples (38%) done (elapsed 12.61 s, remaining 20.00 s)
11700000 of 30000000 tuples (39%) done (elapsed 12.71 s, remaining 19.88 s)
11800000 of 30000000 tuples (39%) done (elapsed 12.82 s, remaining 19.77 s)
11900000 of 30000000 tuples (39%) done (elapsed 12.93 s, remaining 19.66 s)
12000000 of 30000000 tuples (40%) done (elapsed 13.03 s, remaining 19.55 s)
12100000 of 30000000 tuples (40%) done (elapsed 13.14 s, remaining 19.44 s)
12200000 of 30000000 tuples (40%) done (elapsed 13.25 s, remaining 19.33 s)
12300000 of 30000000 tuples (41%) done (elapsed 13.35 s, remaining 19.21 s)
12400000 of 30000000 tuples (41%) done (elapsed 13.46 s, remaining 19.10 s)
12500000 of 30000000 tuples (41%) done (elapsed 13.56 s, remaining 18.98 s)
12600000 of 30000000 tuples (42%) done (elapsed 13.67 s, remaining 18.88 s)
12700000 of 30000000 tuples (42%) done (elapsed 13.77 s, remaining 18.76 s)
12800000 of 30000000 tuples (42%) done (elapsed 13.88 s, remaining 18.66 s)
12900000 of 30000000 tuples (43%) done (elapsed 13.99 s, remaining 18.54 s)
13000000 of 30000000 tuples (43%) done (elapsed 14.09 s, remaining 18.43 s)
13100000 of 30000000 tuples (43%) done (elapsed 14.19 s, remaining 18.31 s)
13200000 of 30000000 tuples (44%) done (elapsed 14.30 s, remaining 18.20 s)
13300000 of 30000000 tuples (44%) done (elapsed 14.41 s, remaining 18.09 s)
13400000 of 30000000 tuples (44%) done (elapsed 14.52 s, remaining 17.99 s)
13500000 of 30000000 tuples (45%) done (elapsed 14.62 s, remaining 17.87 s)
13600000 of 30000000 tuples (45%) done (elapsed 14.73 s, remaining 17.77 s)
13700000 of 30000000 tuples (45%) done (elapsed 14.84 s, remaining 17.66 s)
13800000 of 30000000 tuples (46%) done (elapsed 14.94 s, remaining 17.54 s)
13900000 of 30000000 tuples (46%) done (elapsed 15.07 s, remaining 17.46 s)
14000000 of 30000000 tuples (46%) done (elapsed 15.20 s, remaining 17.37 s)
14100000 of 30000000 tuples (47%) done (elapsed 15.33 s, remaining 17.28 s)
14200000 of 30000000 tuples (47%) done (elapsed 15.46 s, remaining 17.20 s)
14300000 of 30000000 tuples (47%) done (elapsed 15.58 s, remaining 17.10 s)
14400000 of 30000000 tuples (48%) done (elapsed 15.69 s, remaining 16.99 s)
14500000 of 30000000 tuples (48%) done (elapsed 15.78 s, remaining 16.87 s)
14600000 of 30000000 tuples (48%) done (elapsed 15.90 s, remaining 16.77 s)
14700000 of 30000000 tuples (49%) done (elapsed 16.00 s, remaining 16.65 s)
14800000 of 30000000 tuples (49%) done (elapsed 16.10 s, remaining 16.54 s)
14900000 of 30000000 tuples (49%) done (elapsed 16.21 s, remaining 16.42 s)
15000000 of 30000000 tuples (50%) done (elapsed 16.31 s, remaining 16.31 s)
15100000 of 30000000 tuples (50%) done (elapsed 16.42 s, remaining 16.20 s)
15200000 of 30000000 tuples (50%) done (elapsed 16.53 s, remaining 16.09 s)
15300000 of 30000000 tuples (51%) done (elapsed 16.63 s, remaining 15.98 s)
15400000 of 30000000 tuples (51%) done (elapsed 16.73 s, remaining 15.86 s)
15500000 of 30000000 tuples (51%) done (elapsed 16.84 s, remaining 15.76 s)
15600000 of 30000000 tuples (52%) done (elapsed 16.95 s, remaining 15.64 s)
15700000 of 30000000 tuples (52%) done (elapsed 17.06 s, remaining 15.53 s)
15800000 of 30000000 tuples (52%) done (elapsed 17.16 s, remaining 15.43 s)
15900000 of 30000000 tuples (53%) done (elapsed 17.26 s, remaining 15.31 s)
16000000 of 30000000 tuples (53%) done (elapsed 17.40 s, remaining 15.22 s)
16100000 of 30000000 tuples (53%) done (elapsed 17.53 s, remaining 15.13 s)
16200000 of 30000000 tuples (54%) done (elapsed 17.65 s, remaining 15.03 s)
16300000 of 30000000 tuples (54%) done (elapsed 17.78 s, remaining 14.94 s)
16400000 of 30000000 tuples (54%) done (elapsed 17.89 s, remaining 14.84 s)
16500000 of 30000000 tuples (55%) done (elapsed 18.00 s, remaining 14.72 s)
16600000 of 30000000 tuples (55%) done (elapsed 18.10 s, remaining 14.61 s)
16700000 of 30000000 tuples (55%) done (elapsed 18.21 s, remaining 14.50 s)
16800000 of 30000000 tuples (56%) done (elapsed 18.31 s, remaining 14.39 s)
16900000 of 30000000 tuples (56%) done (elapsed 18.42 s, remaining 14.28 s)
17000000 of 30000000 tuples (56%) done (elapsed 18.53 s, remaining 14.17 s)
17100000 of 30000000 tuples (57%) done (elapsed 18.64 s, remaining 14.06 s)
17200000 of 30000000 tuples (57%) done (elapsed 18.75 s, remaining 13.95 s)
17300000 of 30000000 tuples (57%) done (elapsed 18.85 s, remaining 13.84 s)
17400000 of 30000000 tuples (58%) done (elapsed 18.96 s, remaining 13.73 s)
17500000 of 30000000 tuples (58%) done (elapsed 19.07 s, remaining 13.62 s)
17600000 of 30000000 tuples (58%) done (elapsed 19.17 s, remaining 13.51 s)
17700000 of 30000000 tuples (59%) done (elapsed 19.28 s, remaining 13.40 s)
17800000 of 30000000 tuples (59%) done (elapsed 19.38 s, remaining 13.29 s)
17900000 of 30000000 tuples (59%) done (elapsed 19.49 s, remaining 13.18 s)
18000000 of 30000000 tuples (60%) done (elapsed 19.60 s, remaining 13.07 s)
18100000 of 30000000 tuples (60%) done (elapsed 19.70 s, remaining 12.95 s)
18200000 of 30000000 tuples (60%) done (elapsed 19.81 s, remaining 12.84 s)
18300000 of 30000000 tuples (61%) done (elapsed 19.92 s, remaining 12.73 s)
18400000 of 30000000 tuples (61%) done (elapsed 20.04 s, remaining 12.64 s)
18500000 of 30000000 tuples (61%) done (elapsed 20.19 s, remaining 12.55 s)
18600000 of 30000000 tuples (62%) done (elapsed 20.30 s, remaining 12.44 s)
18700000 of 30000000 tuples (62%) done (elapsed 20.43 s, remaining 12.34 s)
18800000 of 30000000 tuples (62%) done (elapsed 20.55 s, remaining 12.24 s)
18900000 of 30000000 tuples (63%) done (elapsed 20.71 s, remaining 12.16 s)
19000000 of 30000000 tuples (63%) done (elapsed 20.83 s, remaining 12.06 s)
19100000 of 30000000 tuples (63%) done (elapsed 20.96 s, remaining 11.96 s)
19200000 of 30000000 tuples (64%) done (elapsed 21.08 s, remaining 11.86 s)
19300000 of 30000000 tuples (64%) done (elapsed 21.19 s, remaining 11.75 s)
19400000 of 30000000 tuples (64%) done (elapsed 21.30 s, remaining 11.64 s)
19500000 of 30000000 tuples (65%) done (elapsed 21.41 s, remaining 11.53 s)
19600000 of 30000000 tuples (65%) done (elapsed 21.52 s, remaining 11.42 s)
19700000 of 30000000 tuples (65%) done (elapsed 21.62 s, remaining 11.30 s)
19800000 of 30000000 tuples (66%) done (elapsed 21.73 s, remaining 11.19 s)
19900000 of 30000000 tuples (66%) done (elapsed 21.84 s, remaining 11.08 s)
20000000 of 30000000 tuples (66%) done (elapsed 21.94 s, remaining 10.97 s)
20100000 of 30000000 tuples (67%) done (elapsed 22.05 s, remaining 10.86 s)
20200000 of 30000000 tuples (67%) done (elapsed 22.15 s, remaining 10.75 s)
20300000 of 30000000 tuples (67%) done (elapsed 22.27 s, remaining 10.64 s)
20400000 of 30000000 tuples (68%) done (elapsed 22.37 s, remaining 10.53 s)
20500000 of 30000000 tuples (68%) done (elapsed 22.47 s, remaining 10.41 s)
20600000 of 30000000 tuples (68%) done (elapsed 22.58 s, remaining 10.30 s)
20700000 of 30000000 tuples (69%) done (elapsed 22.69 s, remaining 10.19 s)
20800000 of 30000000 tuples (69%) done (elapsed 22.80 s, remaining 10.08 s)
20900000 of 30000000 tuples (69%) done (elapsed 22.90 s, remaining 9.97 s)
21000000 of 30000000 tuples (70%) done (elapsed 23.01 s, remaining 9.86 s)
21100000 of 30000000 tuples (70%) done (elapsed 23.11 s, remaining 9.75 s)
21200000 of 30000000 tuples (70%) done (elapsed 23.22 s, remaining 9.64 s)
21300000 of 30000000 tuples (71%) done (elapsed 23.33 s, remaining 9.53 s)
21400000 of 30000000 tuples (71%) done (elapsed 23.43 s, remaining 9.42 s)
21500000 of 30000000 tuples (71%) done (elapsed 23.54 s, remaining 9.31 s)
21600000 of 30000000 tuples (72%) done (elapsed 23.63 s, remaining 9.19 s)
21700000 of 30000000 tuples (72%) done (elapsed 23.74 s, remaining 9.08 s)
21800000 of 30000000 tuples (72%) done (elapsed 23.84 s, remaining 8.97 s)
21900000 of 30000000 tuples (73%) done (elapsed 23.95 s, remaining 8.86 s)
22000000 of 30000000 tuples (73%) done (elapsed 24.05 s, remaining 8.75 s)
22100000 of 30000000 tuples (73%) done (elapsed 24.16 s, remaining 8.64 s)
22200000 of 30000000 tuples (74%) done (elapsed 24.26 s, remaining 8.52 s)
22300000 of 30000000 tuples (74%) done (elapsed 24.36 s, remaining 8.41 s)
22400000 of 30000000 tuples (74%) done (elapsed 24.47 s, remaining 8.30 s)
22500000 of 30000000 tuples (75%) done (elapsed 24.57 s, remaining 8.19 s)
22600000 of 30000000 tuples (75%) done (elapsed 24.67 s, remaining 8.08 s)
22700000 of 30000000 tuples (75%) done (elapsed 24.78 s, remaining 7.97 s)
22800000 of 30000000 tuples (76%) done (elapsed 24.88 s, remaining 7.86 s)
22900000 of 30000000 tuples (76%) done (elapsed 25.00 s, remaining 7.75 s)
23000000 of 30000000 tuples (76%) done (elapsed 25.10 s, remaining 7.64 s)
23100000 of 30000000 tuples (77%) done (elapsed 25.20 s, remaining 7.53 s)
23200000 of 30000000 tuples (77%) done (elapsed 25.31 s, remaining 7.42 s)
23300000 of 30000000 tuples (77%) done (elapsed 25.41 s, remaining 7.31 s)
23400000 of 30000000 tuples (78%) done (elapsed 25.52 s, remaining 7.20 s)
23500000 of 30000000 tuples (78%) done (elapsed 25.62 s, remaining 7.09 s)
23600000 of 30000000 tuples (78%) done (elapsed 25.72 s, remaining 6.98 s)
23700000 of 30000000 tuples (79%) done (elapsed 25.83 s, remaining 6.87 s)
23800000 of 30000000 tuples (79%) done (elapsed 25.93 s, remaining 6.75 s)
23900000 of 30000000 tuples (79%) done (elapsed 26.03 s, remaining 6.64 s)
24000000 of 30000000 tuples (80%) done (elapsed 26.13 s, remaining 6.53 s)
24100000 of 30000000 tuples (80%) done (elapsed 26.23 s, remaining 6.42 s)
24200000 of 30000000 tuples (80%) done (elapsed 26.34 s, remaining 6.31 s)
24300000 of 30000000 tuples (81%) done (elapsed 26.44 s, remaining 6.20 s)
24400000 of 30000000 tuples (81%) done (elapsed 26.54 s, remaining 6.09 s)
24500000 of 30000000 tuples (81%) done (elapsed 26.65 s, remaining 5.98 s)
24600000 of 30000000 tuples (82%) done (elapsed 26.75 s, remaining 5.87 s)
24700000 of 30000000 tuples (82%) done (elapsed 26.85 s, remaining 5.76 s)
24800000 of 30000000 tuples (82%) done (elapsed 26.96 s, remaining 5.65 s)
24900000 of 30000000 tuples (83%) done (elapsed 27.06 s, remaining 5.54 s)
25000000 of 30000000 tuples (83%) done (elapsed 27.16 s, remaining 5.43 s)
25100000 of 30000000 tuples (83%) done (elapsed 27.26 s, remaining 5.32 s)
25200000 of 30000000 tuples (84%) done (elapsed 27.36 s, remaining 5.21 s)
25300000 of 30000000 tuples (84%) done (elapsed 27.47 s, remaining 5.10 s)
25400000 of 30000000 tuples (84%) done (elapsed 27.58 s, remaining 4.99 s)
25500000 of 30000000 tuples (85%) done (elapsed 27.68 s, remaining 4.88 s)
25600000 of 30000000 tuples (85%) done (elapsed 27.78 s, remaining 4.77 s)
25700000 of 30000000 tuples (85%) done (elapsed 27.88 s, remaining 4.67 s)
25800000 of 30000000 tuples (86%) done (elapsed 27.98 s, remaining 4.56 s)
25900000 of 30000000 tuples (86%) done (elapsed 28.09 s, remaining 4.45 s)
26000000 of 30000000 tuples (86%) done (elapsed 28.19 s, remaining 4.34 s)
26100000 of 30000000 tuples (87%) done (elapsed 28.29 s, remaining 4.23 s)
26200000 of 30000000 tuples (87%) done (elapsed 28.40 s, remaining 4.12 s)
26300000 of 30000000 tuples (87%) done (elapsed 28.50 s, remaining 4.01 s)
26400000 of 30000000 tuples (88%) done (elapsed 28.60 s, remaining 3.90 s)
26500000 of 30000000 tuples (88%) done (elapsed 28.71 s, remaining 3.79 s)
26600000 of 30000000 tuples (88%) done (elapsed 28.81 s, remaining 3.68 s)
26700000 of 30000000 tuples (89%) done (elapsed 28.91 s, remaining 3.57 s)
26800000 of 30000000 tuples (89%) done (elapsed 29.01 s, remaining 3.46 s)
26900000 of 30000000 tuples (89%) done (elapsed 29.12 s, remaining 3.36 s)
27000000 of 30000000 tuples (90%) done (elapsed 29.22 s, remaining 3.25 s)
27100000 of 30000000 tuples (90%) done (elapsed 29.33 s, remaining 3.14 s)
27200000 of 30000000 tuples (90%) done (elapsed 29.43 s, remaining 3.03 s)
27300000 of 30000000 tuples (91%) done (elapsed 29.53 s, remaining 2.92 s)
27400000 of 30000000 tuples (91%) done (elapsed 29.64 s, remaining 2.81 s)
27500000 of 30000000 tuples (91%) done (elapsed 29.74 s, remaining 2.70 s)
27600000 of 30000000 tuples (92%) done (elapsed 29.84 s, remaining 2.59 s)
27700000 of 30000000 tuples (92%) done (elapsed 29.95 s, remaining 2.49 s)
27800000 of 30000000 tuples (92%) done (elapsed 30.04 s, remaining 2.38 s)
27900000 of 30000000 tuples (93%) done (elapsed 30.15 s, remaining 2.27 s)
28000000 of 30000000 tuples (93%) done (elapsed 30.25 s, remaining 2.16 s)
28100000 of 30000000 tuples (93%) done (elapsed 30.36 s, remaining 2.05 s)
28200000 of 30000000 tuples (94%) done (elapsed 30.46 s, remaining 1.94 s)
28300000 of 30000000 tuples (94%) done (elapsed 30.56 s, remaining 1.84 s)
28400000 of 30000000 tuples (94%) done (elapsed 30.66 s, remaining 1.73 s)
28500000 of 30000000 tuples (95%) done (elapsed 30.77 s, remaining 1.62 s)
28600000 of 30000000 tuples (95%) done (elapsed 30.87 s, remaining 1.51 s)
28700000 of 30000000 tuples (95%) done (elapsed 30.97 s, remaining 1.40 s)
28800000 of 30000000 tuples (96%) done (elapsed 31.08 s, remaining 1.29 s)
28900000 of 30000000 tuples (96%) done (elapsed 31.18 s, remaining 1.19 s)
29000000 of 30000000 tuples (96%) done (elapsed 31.28 s, remaining 1.08 s)
29100000 of 30000000 tuples (97%) done (elapsed 31.39 s, remaining 0.97 s)
29200000 of 30000000 tuples (97%) done (elapsed 31.49 s, remaining 0.86 s)
29300000 of 30000000 tuples (97%) done (elapsed 31.59 s, remaining 0.75 s)
29400000 of 30000000 tuples (98%) done (elapsed 31.69 s, remaining 0.65 s)
29500000 of 30000000 tuples (98%) done (elapsed 31.80 s, remaining 0.54 s)
29600000 of 30000000 tuples (98%) done (elapsed 31.90 s, remaining 0.43 s)
29700000 of 30000000 tuples (99%) done (elapsed 32.00 s, remaining 0.32 s)
29800000 of 30000000 tuples (99%) done (elapsed 32.10 s, remaining 0.22 s)
29900000 of 30000000 tuples (99%) done (elapsed 32.21 s, remaining 0.11 s)
30000000 of 30000000 tuples (100%) done (elapsed 32.31 s, remaining 0.00 s)
vacuum...
set primary keys...
done.
